[
  {
    "npcs": "5198,5199",
    "high_alch": "0",
    "currency": "995",
    "general_store": "false",
    "id": "1",
    "title": "Ava's Odds and Ends",
    "stock": "{314,1000}-{884,40}-{886,10}-{40,30}-{41,20}"
  },
  {
    "npcs": "528,529",
    "high_alch": "0",
    "currency": "995",
    "general_store": "true",
    "id": "2",
    "title": "Edgeville General Store",
    "stock": "{1931,30}-{1935,30}-{1735,10}-{1925,10}-{1923,10}-{1887,10}-{590,10}-{1755,10}-{2347,10}-{550,10}-{9003,10}"
  },
  {
    "npcs": "525,524",
    "high_alch": "0",
    "currency": "995",
    "general_store": "true",
    "id": "3",
    "title": "Al Kharid General Store",
    "stock": "{1931,30}-{1935,30}-{1735,10}-{1925,10}-{1923,10}-{1887,10}-{590,10}-{1755,10}-{2347,10}-{550,10}-{9003,10}"
  },
  {
    "npcs": "3799",
    "high_alch": "0",
    "currency": "995",
    "general_store": "true",
    "id": "4",
    "title": "Void Knight General Store",
    "stock": "{1931,30}-{1935,30}-{1735,10}-{1925,10}-{1923,10}-{1887,10}-{590,10}-{1755,10}-{2347,10}-{550,10}-{9003,10}-{7934,25}"
  },
  {
    "npcs": "1436",
    "high_alch": "0",
    "currency": "995",
    "general_store": "true",
    "id": "5",
    "title": "Ifaba's General Store",
    "stock": "{1931,30}-{1935,30}-{1735,10}-{1925,10}-{1923,10}-{1887,10}-{590,10}-{1755,10}-{2347,10}-{550,10}-{9003,10}"
  },
  {
    "npcs": "590",
    "high_alch": "0",
    "currency": "995",
    "general_store": "true",
    "id": "6",
    "title": "Aemad's Adventuring Supplies Store",
    "stock": "{1759,100}-{882,1000}-{1265,10}-{2142,10}-{1349,10}-{946,10}-{970,10}-{954,10}-{590,10}-{227,10}"
  },
  {
    "npcs": "591",
    "high_alch": "0",
    "currency": "995",
    "general_store": "true",
    "id": "7",
    "title": "Kortan General Store",
    "stock": "{1931,30}-{1935,30}-{1735,10}-{1925,10}-{1923,10}-{1887,10}-{590,10}-{1755,10}-{2347,10}-{550,10}-{9003,10}"
  },
  {
    "npcs": "971",
    "high_alch": "0",
    "currency": "995",
    "general_store": "true",
    "id": "8",
    "title": "West Ardougne General Store",
    "stock": "{1931,30}-{1935,30}-{1735,10}-{1925,10}-{1923,10}-{1887,10}-{590,10}-{1755,10}-{2347,10}-{550,10}-{9003,10}"
  },
  {
    "npcs": "1917",
    "high_alch": "0",
    "currency": "995",
    "general_store": "true",
    "id": "9",
    "title": "Bandit Bargains",
    "stock": "{1823,5}-{1831,5}-{1937,5}-{1921,5}-{1929,5}-{1935,5}-{1923,5}-{1925,5}-{1837,5}-{1833,5}-{1835,5}-{946,5}"
  },
  {
    "npcs": "597",
    "high_alch": "1",
    "currency": "995",
    "general_store": "true",
    "id": "10",
    "title": "Bandit Duty Free",
    "stock": "{1931,30}-{1935,30}-{1735,10}-{1925,10}-{1923,10}-{1887,10}-{590,10}-{1755,10}-{2347,10}-{550,10}-{9003,10}"
  },
  {
    "npcs": "1083",
    "high_alch": "0",
    "currency": "995",
    "general_store": "true",
    "id": "11",
    "title": "Burthorpe Supplies",
    "stock": "{1931,30}-{1935,30}-{1735,10}-{1925,10}-{1923,10}-{1887,10}-{590,10}-{1755,10}-{2347,10}-{550,10}-{9003,10}"
  },
  {
    "npcs": "3541,7396",
    "high_alch": "0",
    "currency": "995",
    "general_store": "true",
    "id": "12",
    "title": "Aurel's Supplies",
    "stock": "{1931,30}-{1935,30}-{1735,10}-{1925,10}-{1923,10}-{1887,10}-{590,10}-{1755,10}-{2347,10}-{550,10}-{9003,10}"
  },
  {
    "npcs": "1040",
    "high_alch": "0",
    "currency": "995",
    "general_store": "true",
    "id": "13",
    "title": "General Store (Canifis)",
    "stock": "{1931,30}-{1935,30}-{1735,10}-{1925,10}-{1923,10}-{1887,10}-{590,10}-{1755,10}-{2347,10}-{550,10}-{9003,10}"
  },
  {
    "npcs": "563",
    "high_alch": "0",
    "currency": "995",
    "general_store": "true",
    "id": "14",
    "title": "Arhein's Store",
    "stock": "{1931,30}-{1935,30}-{1735,10}-{1925,10}-{1923,10}-{1887,10}-{590,10}-{1755,10}-{2347,10}-{550,10}-{9003,10}"
  },
  {
    "npcs": "5798",
    "high_alch": "0",
    "currency": "995",
    "general_store": "true",
    "id": "15",
    "title": "Dorgesh-Kaan General Supplies",
    "stock": "{1931,30}-{1935,30}-{1735,10}-{1925,10}-{1923,10}-{1887,10}-{590,10}-{1755,10}-{2347,10}-{550,10}-{9003,10}"
  },
  {
    "npcs": "582",
    "high_alch": "0",
    "currency": "995",
    "general_store": "true",
    "id": "16",
    "title": "Dwarven Shopping Store",
    "stock": "{1931,30}-{1935,30}-{1735,10}-{1925,10}-{1923,10}-{1887,10}-{590,10}-{1755,10}-{2347,10}-{550,10}-{9003,10}"
  },
  {
    "npcs": "526,527",
    "high_alch": "0",
    "currency": "995",
    "general_store": "true",
    "id": "17",
    "title": "Falador General Store",
    "stock": "{1931,30}-{1935,30}-{1735,10}-{1925,10}-{1923,10}-{1887,10}-{590,10}-{1755,10}-{2347,10}-{550,10}-{9003,10}"
  },
  {
    "npcs": "873",
    "high_alch": "0",
    "currency": "995",
    "general_store": "true",
    "id": "18",
    "title": "Dal's General Ogre Supplies",
    "stock": "{1931,30}-{1935,30}-{1735,10}-{1925,10}-{1923,10}-{1887,10}-{590,10}-{1755,10}-{2347,10}-{550,10}-{9003,10}"
  },
  {
    "npcs": "532,533",
    "high_alch": "0",
    "currency": "995",
    "general_store": "true",
    "id": "19",
    "title": "Karamja General Store",
    "stock": "{1931,30}-{1935,30}-{1735,10}-{1925,10}-{1923,10}-{1887,10}-{590,10}-{1755,10}-{2347,10}-{550,10}-{9003,10}"
  },
  {
    "npcs": "568",
    "high_alch": "0",
    "currency": "995",
    "general_store": "true",
    "id": "20",
    "title": "Karamja Wines, Spirits, and Beers",
    "stock": "{1917,3}-{431,3}-{1993,1}"
  },
  {
    "npcs": "2154",
    "high_alch": "0",
    "currency": "995",
    "general_store": "true",
    "id": "21",
    "title": "Gunslik's Assorted Items",
    "stock": "{1931,30}-{1935,30}-{1735,10}-{1925,10}-{1923,10}-{1887,10}-{590,10}-{1755,10}-{2347,10}-{550,10}-{9003,10}"
  },
  {
    "npcs": "1334",
    "high_alch": "0",
    "currency": "995",
    "general_store": "true",
    "id": "22",
    "title": "The Lighthouse Store",
    "stock": "{1931,30}-{1935,30}-{1735,10}-{1925,10}-{1923,10}-{1887,10}-{590,10}-{1755,10}-{2347,10}-{550,10}-{9003,10}"
  },
  {
    "npcs": "2352",
    "high_alch": "0",
    "currency": "995",
    "general_store": "true",
    "id": "23",
    "title": "Lletya General Store",
    "stock": "{1931,30}-{1935,30}-{1735,10}-{1925,10}-{1923,10}-{1887,10}-{590,10}-{1755,10}-{2347,10}-{550,10}-{9003,10}"
  },
  {
    "npcs": "4516",
    "high_alch": "0",
    "currency": "995",
    "general_store": "true",
    "id": "24",
    "title": "Moon Clan General Store",
    "stock": "{1931,30}-{1935,30}-{1735,10}-{1925,10}-{1923,10}-{1887,10}-{590,10}-{1755,10}-{2347,10}-{550,10}-{9003,10}"
  },
  {
    "npcs": "520,521",
    "high_alch": "0",
    "currency": "995",
    "general_store": "true",
    "id": "25",
    "title": "Lumbridge General Store",
    "stock": "{1931,30}-{1935,30}-{1735,10}-{1925,10}-{1923,10}-{1887,10}-{590,10}-{1755,10}-{2347,10}-{550,10}-{9003,10}"
  },
  {
    "npcs": "4716",
    "high_alch": "0",
    "currency": "995",
    "general_store": "true",
    "id": "26",
    "title": "Trader Sven's Black Market Goods",
    "stock": "{1931,30}-{1935,30}-{1735,10}-{1925,10}-{1923,10}-{1887,10}-{590,10}-{1755,10}-{2347,10}-{550,10}-{9003,10}"
  },
  {
    "npcs": "3922",
    "high_alch": "0",
    "currency": "995",
    "general_store": "true",
    "id": "27",
    "title": "Miscellanian General Store",
    "stock": "{1931,30}-{1935,30}-{1735,10}-{1925,10}-{1923,10}-{1887,10}-{590,10}-{1755,10}-{2347,10}-{550,10}-{9003,10}"
  },
  {
    "npcs": "1254",
    "high_alch": "0",
    "currency": "995",
    "general_store": "true",
    "id": "28",
    "title": "Razmire General Store",
    "stock": "{1931,30}-{1935,30}-{1735,10}-{1925,10}-{1923,10}-{1887,10}-{590,10}-{1755,10}-{2347,10}-{550,10}-{9003,10}"
  },
  {
    "npcs": "2086",
    "high_alch": "0",
    "currency": "995",
    "general_store": "true",
    "id": "29",
    "title": "Nardah General Store",
    "stock": "{1931,30}-{1935,30}-{1735,10}-{1925,10}-{1923,10}-{1887,10}-{590,10}-{1755,10}-{2347,10}-{550,10}-{9003,10}"
  },
  {
    "npcs": "3824",
    "high_alch": "0",
    "currency": "995",
    "general_store": "true",
    "id": "30",
    "title": "Arnold's Eclectic Supplies",
    "stock": "{303,10}-{311,10}-{7944,0}-{7946,0}-{2309,10}-{1931,30}-{1927,10}-{1733,10}-{1734,1000}-{1755,10}-{1917,10}-{1785,10}-{946,10}"
  },
  {
    "npcs": "1866",
    "high_alch": "0",
    "currency": "995",
    "general_store": "true",
    "id": "31",
    "title": "Pollnivneach General Store",
    "stock": "{1931,30}-{1935,30}-{1735,10}-{1925,10}-{1923,10}-{1887,10}-{590,10}-{1755,10}-{2347,10}-{550,10}-{9003,10}"
  },
  {
    "npcs": "1699",
    "high_alch": "0",
    "currency": "995",
    "general_store": "true",
    "id": "33",
    "title": "Port Phasmatys General Store",
    "stock": "{1931,30}-{1935,30}-{1735,10}-{1925,10}-{1923,10}-{1887,10}-{590,10}-{1755,10}-{2347,10}-{550,10}-{9003,10}"
  },
  {
    "npcs": "530,531",
    "high_alch": "0",
    "currency": "995",
    "general_store": "true",
    "id": "34",
    "title": "Rimmington General Store",
    "stock": "{1931,30}-{1935,30}-{1735,10}-{1925,10}-{1923,10}-{1887,10}-{590,10}-{1755,10}-{2347,10}-{550,10}-{9003,10}"
  },
  {
    "npcs": "836",
    "high_alch": "0",
    "currency": "995",
    "general_store": "true",
    "id": "35",
    "title": "Shantay Pass Shop",
    "stock": "{1823,100}-{1831,100}-{1937,10}-{1921,10}-{1929,10}-{946,10}-{1833,10}-{1835,10}-{1837,10}-{2349,10}-{314,500}-{2347,10}-{1925,0}-{1923,0}-{1935,0}-{1854,500}-{954,20}"
  },
  {
    "npcs": "516",
    "high_alch": "0",
    "currency": "995",
    "general_store": "true",
    "id": "36",
    "title": "Obli's General Store",
    "stock": "{590,2}-{229,10}-{233,3}-{1931,3}-{1351,3}-{1265,2}-{1349,5}-{1129,12}-{1059,10}-{1061,10}-{2142,2}-{2309,10}-{2349,10}-{952,10}-{36,10}-{596,10}-{1755,10}-{2347,10}-{970,50}-{973,50}-{227,50}-{975,50}-{954,10}"
  },
  {
    "npcs": "560",
    "high_alch": "0",
    "currency": "995",
    "general_store": "true",
    "id": "37",
    "title": "Jiminua's Jungle Store",
    "stock": "{590,2}-{36,10}-{596,10}-{1931,3}-{954,10}-{1129,12}-{1059,10}-{1061,10}-{2142,10}-{2309,10}-{227,10}-{227,300}-{233,300}-{175,10}-{970,10}-{973,10}-{946,10}-{2347,10}-{975,10}-{1755,10}-{952,10}-{1351,10}-{1265,10}-{1349,10}"
  },
  {
    "npcs": "471",
    "high_alch": "0",
    "currency": "995",
    "general_store": "true",
    "id": "38",
    "title": "Bolkoy's Village Shop",
    "stock": "{1931,30}-{1935,30}-{1735,10}-{1925,10}-{1923,10}-{1887,10}-{590,10}-{1755,10}-{2347,10}-{550,10}-{9003,10}"
  },
  {
    "npcs": "1208",
    "high_alch": "0",
    "currency": "995",
    "general_store": "true",
    "id": "39",
    "title": "Quartermaster's Stores",
    "stock": "{1931,30}-{1935,10}-{1735,10}-{590,10}-{2309,10}-{3190,10}-{3192,10}-{3194,10}-{3196,10}-{3198,10}-{3200,10}-{3202,10}-{3204,10}"
  },
  {
    "npcs": "522,523",
    "high_alch": "0",
    "currency": "995",
    "general_store": "true",
    "id": "40",
    "title": "Varrock General Store",
    "stock": "{1931,30}-{1935,30}-{1735,10}-{1925,10}-{1923,10}-{1887,10}-{590,10}-{1755,10}-{2347,10}-{550,10}-{9003,10}"
  },
  {
    "npcs": "4651,4652,4653,4654,4655,4656,4650",
    "high_alch": "0",
    "currency": "995",
    "general_store": "true",
    "id": "41",
    "title": "Trader Stan's Trading Post",
    "stock": "{1931,5}-{1935,2}-{1735,2}-{1925,3}-{1923,2}-{1887,2}-{590,2}-{1755,2}-{2347,5}-{550,5}-{9003,5}-{954,2}-{946,2}-{2114,0}-{1963,15}-{2108,10}-{4286,10}-{1785,15}-{1783,inf}-{401,inf}-{1781,10}-{301,20}-{307,20}-{1941,30}-{9629,25}-{3226,20}-{1025,5}"
  },
  {
    "npcs": "534",
    "high_alch": "0",
    "currency": "995",
    "general_store": "true",
    "id": "42",
    "title": "Zanaris General Store",
    "stock": "{1931,30}-{1935,30}-{1735,10}-{1925,10}-{1923,10}-{1887,10}-{590,10}-{1755,10}-{2347,10}-{550,10}-{9003,10}"
  },
  {
    "npcs": "588",
    "high_alch": "0",
    "currency": "995",
    "general_store": "false",
    "id": "43",
    "title": "Davon's Amulet Store",
    "stock": "{1718,0}-{1727,0}-{1729,0}-{1725,0}-{1731,0}"
  },
  {
    "npcs": "2356",
    "high_alch": "0",
    "currency": "995",
    "general_store": "false",
    "id": "44",
    "title": "Lletya Archery Shop",
    "stock": "{884,1000}-{886,300}-{888,100}-{890,100}-{892,30}-{877,1000}-{843,10}-{837,10}-{849,10}"
  },
  {
    "npcs": "3796",
    "high_alch": "0",
    "currency": "995",
    "general_store": "false",
    "id": "45",
    "title": "Void Knight Archery Store",
    "stock": "{825,300}-{826,300}-{827,100}-{828,100}-{829,250}-{830,10}-{39,100}-{40,100}-{41,100}-{42,30}-{43,30}-{44,10}"
  },
  {
    "npcs": "1860",
    "high_alch": "1",
    "currency": "995",
    "general_store": "false",
    "id": "46",
    "title": "Brian's Archery Supplies",
    "stock": "{886,100}-{888,30}-{890,0}-{843,10}-{845,10}-{849,10}-{847,10}-{853,10}-{851,10}"
  },
  {
    "npcs": "550",
    "high_alch": "0",
    "currency": "995",
    "general_store": "false",
    "id": "47",
    "title": "Lowe's Archery Emporium",
    "stock": "{882,2500}-{884,500}-{886,500}-{888,500}-{890,300}-{877,500}-{841,10}-{843,10}-{849,10}-{853,10}-{837,10}-{9177,10}-{9179,10}"
  },
  {
    "npcs": "575",
    "high_alch": "0",
    "currency": "995",
    "general_store": "false",
    "id": "48",
    "title": "Hickton's Archery Emporium",
    "stock": "{877,300}-{882,1000}-{884,100}-{886,0}-{888,0}-{890,0}-{892,0}-{4773,0}-{4778,0}-{4783,0}-{4788,0}-{4793,0}-{4798,0}-{4803,0}-{841,10}-{837,10}-{843,10}-{4827,10}-{1133,10}-{1097,10}"
  },
  {
    "npcs": "683",
    "high_alch": "0",
    "currency": "995",
    "general_store": "false",
    "id": "49",
    "title": "Dargaud's Bows And Arrows",
    "stock": "{52,1000}-{39,1000}-{40,300}-{41,300}-{42,100}-{43,100}-{44,100}-{882,1000}-{884,300}-{886,300}-{888,100}-{890,100}-{892,100}-{4773,0}-{4778,0}-{4783,0}-{4788,0}-{4793,0}-{4798,0}-{4803,0}-{841,10}-{843,10}-{849,10}-{839,20}-{845,20}-{847,20}-{4827,10}"
  },
  {
    "npcs": "682",
    "high_alch": "0",
    "currency": "995",
    "general_store": "false",
    "id": "50",
    "title": "Aaron's Archery Appendages",
    "stock": "{1129,10}-{1131,10}-{1133,10}-{1095,10}-{1097,10}-{1169,10}-{1167,10}-{1063,10}"
  },
  {
    "npcs": "4563",
    "high_alch": "0",
    "currency": "995",
    "general_store": "false",
    "id": "51",
    "title": "Crossbow Shop (dwarven Mine)",
    "stock": "{9440,10}-{9442,10}-{9444,10}-{9446,10}-{9448,10}-{9450,10}-{9452,0}-{9420,10}-{9423,10}-{9425,10}-{9427,10}-{9429,10}-{9431,0}"
  },
  {
    "npcs": "4558",
    "high_alch": "0",
    "currency": "995",
    "general_store": "false",
    "id": "52",
    "title": "Crossbow Shop (keldagrim)",
    "stock": "{9440,10}-{9442,10}-{9444,10}-{9446,10}-{9448,10}-{9450,10}-{9452,0}-{9420,10}-{9423,10}-{9425,10}-{9427,10}-{9429,10}-{9431,0}"
  },
  {
    "npcs": "4559",
    "high_alch": "0",
    "currency": "995",
    "general_store": "false",
    "id": "53",
    "title": "Crossbow Shop (white Wolf Mountain)",
    "stock": "{9440,10}-{9442,10}-{9444,10}-{9446,10}-{9448,10}-{9450,10}-{9452,0}-{9420,10}-{9423,10}-{9425,10}-{9427,10}-{9429,10}-{9431,0}"
  },
  {
    "npcs": "519",
    "high_alch": "0",
    "currency": "995",
    "general_store": "false",
    "id": "54",
    "title": "Bob's Brilliant Axes",
    "stock": "{1265,10}-{1351,10}-{1349,10}-{1353,10}-{1363,10}-{1365,10}-{1369,10}"
  },
  {
    "npcs": "559",
    "high_alch": "1",
    "currency": "995",
    "general_store": "false",
    "id": "55",
    "title": "Brian's Battleaxe Bazaar",
    "stock": "{1375,4}-{1363,3}-{1365,2}-{1367,1}-{1369,1}-{1371,1}"
  },
  {
    "npcs": "562",
    "high_alch": "0",
    "currency": "995",
    "general_store": "false",
    "id": "56",
    "title": "Candle Shop",
    "stock": "{36,10}-{38,10}"
  },
  {
    "npcs": "562",
    "high_alch": "0",
    "currency": "995",
    "general_store": "false",
    "id": "57",
    "title": "Candle Shop",
    "stock": "{36,10}"
  },
  {
    "npcs": "581",
    "high_alch": "0",
    "currency": "995",
    "general_store": "false",
    "id": "58",
    "title": "Wayne's Chains",
    "stock": "{1103,3}-{1101,2}-{1105,1}-{1107,1}-{1109,1}-{1111,1}"
  },
  {
    "npcs": "554",
    "high_alch": "0",
    "currency": "995",
    "general_store": "false",
    "id": "59",
    "title": "Fancy Clothes Store",
    "stock": "{1949,10}-{958,10}-{948,10}-{1733,10}-{1734,1000}-{1059,30}-{1061,10}-{1757,10}-{1013,10}-{1025,10}-{10088,0}-{10090,0}-{10091,0}-{10089,0}-{10087,0}-{11525,0}"
  },
  {
    "npcs": "548",
    "high_alch": "0",
    "currency": "995",
    "general_store": "false",
    "id": "60",
    "title": "Thessalia's Fine Clothes",
    "stock": "{1005,10}-{1129,10}-{1059,10}-{1061,10}-{1757,10}-{1013,10}-{1015,10}-{1011,10}-{1007,10}-{950,10}-{426,10}-{428,10}"
  },
  {
    "npcs": "601",
    "high_alch": "0",
    "currency": "995",
    "general_store": "false",
    "id": "61",
    "title": "Fine Fashions",
    "stock": "{646,30}-{648,30}-{650,30}-{652,30}-{654,30}-{656,30}-{658,30}-{660,30}-{662,30}-{664,30}-{636,30}-{638,30}-{640,30}-{642,30}-{644,30}-{626,30}-{628,30}-{630,30}-{632,30}-{634,30}"
  },
  {
    "npcs": "1301",
    "high_alch": "0",
    "currency": "995",
    "general_store": "false",
    "id": "62",
    "title": "Yrsa's Accoutrements",
    "stock": "{3775,10}-{3773,10}-{3767,10}-{3769,10}-{3771,10}-{3793,10}-{3795,10}-{3797,10}-{3791,10}-{3799,10}-{3767,10}-{3759,10}-{3761,10}-{3765,10}-{3763,10}-{3777,10}-{3779,10}-{3781,10}-{3783,10}-{3785,10}-{3787,10}-{3789,10}"
  },
  {
    "npcs": "1039",
    "high_alch": "0",
    "currency": "995",
    "general_store": "false",
    "id": "63",
    "title": "Barker's Haberdashery",
    "stock": "{2894,5}-{2896,5}-{2898,5}-{2900,5}-{2902,5}-{2904,5}-{2906,5}-{2908,5}-{2910,5}-{2912,5}-{2914,5}-{2916,5}-{2918,5}-{2920,5}-{2922,5}-{2924,5}-{2926,5}-{2928,5}-{2930,5}-{2932,5}-{2934,5}-{2936,5}-{2938,5}-{2940,5}-{2942,5}-{1007,5}-{1023,5}-{1019,5}-{1021,5}-{1027,5}"
  },
  {
    "npcs": "2353",
    "high_alch": "0",
    "currency": "995",
    "general_store": "false",
    "id": "64",
    "title": "Lletya Seamstress",
    "stock": "{1734,1000}-{1733,10}-{1759,100}-{1763,10}-{1765,10}-{1767,10}-{1769,10}-{1771,10}-{1773,10}"
  },
  {
    "npcs": "3166",
    "high_alch": "0",
    "currency": "995",
    "general_store": "false",
    "id": "65",
    "title": "Dodgy Mikes Second-hand Clothing",
    "stock": "{7114,10}"
  },
  {
    "npcs": "2161",
    "high_alch": "0",
    "currency": "995",
    "general_store": "false",
    "id": "66",
    "title": "Agmundi Quality Clothes",
    "stock": ""
  },
  {
    "npcs": "2162",
    "high_alch": "0",
    "currency": "995",
    "general_store": "false",
    "id": "67",
    "title": "Vermundi's Clothes Stall",
    "stock": "{950,10}"
  },
  {
    "npcs": "600",
    "high_alch": "0",
    "currency": "995",
    "general_store": "false",
    "id": "68",
    "title": "Grand Season Groceries",
    "stock": "{2171,10}-{2128,10}-{1933,10}-{2169,10}-{1957,10}-{1965,10}-{1982,10}-{1985,10}-{2120,10}-{2108,10}-{2102,10}-{2114,10}-{2126,10}-{2025,10}-{1973,10}-{1975,10}-{2130,10}-{1927,10}-{946,10}-{2167,10}-{2164,10}-{2165,10}-{2166,10}"
  },
  {
    "npcs": "593",
    "high_alch": "0",
    "currency": "995",
    "general_store": "false",
    "id": "69",
    "title": "Frenita's Cookery Shop",
    "stock": "{2313,10}-{1955,0}-{1887,10}-{1923,10}-{590,10}-{1935,10}-{1931,30}-{1973,10}-{1933,500}-{1980,10}"
  },
  {
    "npcs": "545",
    "high_alch": "0",
    "currency": "995",
    "general_store": "false",
    "id": "70",
    "title": "Dommik's Crafting Store",
    "stock": "{1755,10}-{1592,10}-{1597,10}-{1595,10}-{1733,10}-{1734,1000}-{1599,10}-{2976,10}-{5523,10}-{9434,10}-{11065,10}"
  },
  {
    "npcs": "585",
    "high_alch": "1",
    "currency": "995",
    "general_store": "false",
    "id": "71",
    "title": "Rommik's Crafty Supplies",
    "stock": "{1755,10}-{1592,10}-{1597,10}-{1595,10}-{1733,10}-{1734,1000}-{1599,10}-{2976,10}-{5523,10}-{9434,10}-{11065,10}"
  },
  {
    "npcs": "5268",
    "high_alch": "0",
    "currency": "995",
    "general_store": "false",
    "id": "72",
    "title": "Jamila's Craft Stall",
    "stock": "{1755,10}-{1592,10}-{1597,10}-{1595,10}-{1733,10}-{1734,1000}-{1599,10}-{2976,10}-{5523,10}-{11065,10}"
  },
  {
    "npcs": "2305",
    "high_alch": "0",
    "currency": "995",
    "general_store": "false",
    "id": "73",
    "title": "Vanessa's Farming Shop",
    "stock": "{5376,10}-{6032,300}-{5418,10}-{5376,10}-{6036,10}-{5354,100}-{5341,10}-{5329,10}-{5343,10}-{952,10}-{5325,10}-{1925,100}-{5331,30}-{12622,10}-{5996,0}-{6006,0}-{1965,0}-{5994,0}-{5931,0}-{6000,0}-{1957,0}-{5504,0}-{5986,0}-{1982,0}-{5982,0}-{6002,0}-{5998,0}"
  },
  {
    "npcs": "2307",
    "high_alch": "0",
    "currency": "995",
    "general_store": "false",
    "id": "74",
    "title": "Alice's Farming Shop",
    "stock": "{5376,10}-{6032,300}-{5418,10}-{5376,10}-{6036,10}-{5354,100}-{5341,10}-{5329,10}-{5343,10}-{952,10}-{5325,10}-{1925,100}-{5331,30}-{12622,10}-{5996,0}-{6006,0}-{1965,0}-{5994,0}-{5931,0}-{6000,0}-{1957,0}-{5504,0}-{5986,0}-{1982,0}-{5982,0}-{6002,0}-{5998,0}"
  },
  {
    "npcs": "2304",
    "high_alch": "1",
    "currency": "995",
    "general_store": "false",
    "id": "75",
    "title": "Sarah's Farming Shop",
    "stock": "{5376,10}-{6032,300}-{5418,10}-{6036,10}-{5354,100}-{5341,10}-{5329,10}-{5343,10}-{952,10}-{5325,10}-{1925,100}-{5331,30}-{12622,10}-{5996,0}-{6006,0}-{1965,0}-{5994,0}-{5931,0}-{6000,0}-{1957,0}-{5504,0}-{5986,0}-{1982,0}-{5982,0}-{6002,0}-{5998,0}"
  },
  {
    "npcs": "1783",
    "high_alch": "0",
    "currency": "995",
    "general_store": "false",
    "id": "76",
    "title": "Richard's Farming Shop",
    "stock": "{5376,10}-{6032,300}-{5418,10}-{5376,10}-{6036,10}-{5354,100}-{5341,10}-{5329,10}-{5343,10}-{952,10}-{5325,10}-{1925,100}-{5331,30}-{12622,10}-{5996,0}-{6006,0}-{1965,0}-{5994,0}-{5931,0}-{6000,0}-{1957,0}-{5504,0}-{5986,0}-{1982,0}-{5982,0}-{6002,0}-{5998,0}"
  },
  {
    "npcs": "557",
    "high_alch": "1",
    "currency": "995",
    "general_store": "false",
    "id": "77",
    "title": "Wydin's Food Store",
    "stock": "{1933,500}-{2132,10}-{2138,10}-{1965,10}-{1963,0}-{1951,0}-{2309,10}-{1973,10}-{1985,10}-{1982,10}-{1550,10}"
  },
  {
    "npcs": "1038",
    "high_alch": "0",
    "currency": "995",
    "general_store": "false",
    "id": "78",
    "title": "Rufus's Meat Emporium",
    "stock": "{2132,100}-{2138,30}-{2134,10}-{2136,10}-{335,0}-{349,0}-{331,0}-{383,0}"
  },
  {
    "npcs": "1433",
    "high_alch": "0",
    "currency": "995",
    "general_store": "false",
    "id": "79",
    "title": "Solihib's Consumables Stall",
    "stock": "{4012,10}-{1963,10}-{4016,10}-{4014,10}"
  },
  {
    "npcs": "7053",
    "high_alch": "0",
    "currency": "995",
    "general_store": "false",
    "id": "80",
    "title": "Fresh Meat",
    "stock": "{2134,10}-{2132,300}-{2136,10}-{2142,10}-{2138,10}-{2140,10}-{3226,100}-{7224,0}-{7223,0}-{3228,10}-{2876,0}-{7230,0}-{2878,0}-{7566,0}-{2337,0}-{9978,10}-{9984,0}-{9980,0}-{9986,0}-{9992,0}-{9988,0}"
  },
  {
    "npcs": "571",
    "high_alch": "0",
    "currency": "995",
    "general_store": "false",
    "id": "81",
    "title": "Ardougne Baker's Stall",
    "stock": "{2309,10}-{1891,10}-{1973,100}"
  },
  {
    "npcs": "5487",
    "high_alch": "0",
    "currency": "995",
    "general_store": "false",
    "id": "82",
    "title": "Keepa Kettilon's Store",
    "stock": "{361,20}-{329,20}-{339,20}-{379,10}-{373,0}-{385,0}"
  },
  {
    "npcs": "",
    "high_alch": "0",
    "currency": "995",
    "general_store": "false",
    "id": "83",
    "title": "Gianne's Restaurant",
    "stock": "{2223,10}-{2225,10}-{2221,10}-{2219,10}-{2227,10}-{2233,10}-{2231,10}-{2235,10}-{2229,10}-{2241,10}-{2243,10}-{2239,10}-{2237,10}"
  },
  {
    "npcs": "4294",
    "high_alch": "0",
    "currency": "995",
    "general_store": "false",
    "id": "84",
    "title": "Warriors' Guild Potion Shop",
    "stock": "{115,10}-{121,10}-{133,10}"
  },
  {
    "npcs": "4293",
    "high_alch": "1",
    "currency": "995",
    "general_store": "false",
    "id": "85",
    "title": "Warriors' Guild Food Shop",
    "stock": "{333,10}-{365,10}-{2289,10}-{6705,10}-{2003,10}"
  },
  {
    "npcs": "4295",
    "high_alch": "0",
    "currency": "995",
    "general_store": "false",
    "id": "86",
    "title": "Warriors' Guild Armoury",
    "stock": "{1363,10}-{1365,10}-{1369,10}-{1277,10}-{1279,10}-{1281,10}-{1283,10}-{1285,10}-{1287,10}-{1307,10}-{1309,10}-{1311,10}-{1313,10}-{1315,10}-{1317,10}-{1211,10}-{1301,10}-{1317,10}-{1297,10}"
  },
  {
    "npcs": "584",
    "high_alch": "1",
    "currency": "995",
    "general_store": "false",
    "id": "87",
    "title": "Herquin's Gems",
    "stock": "{1623,0}-{1621,0}-{1619,0}-{1617,0}-{1607,0}-{1605,0}-{1603,0}-{1601,0}"
  },
  {
    "npcs": "570",
    "high_alch": "0",
    "currency": "995",
    "general_store": "false",
    "id": "88",
    "title": "Ardougne Gem Stall",
    "stock": "{1623,0}-{1621,0}-{1619,0}-{1617,0}-{1607,0}-{1605,0}-{1603,0}-{1601,0}"
  },
  {
    "npcs": "2157",
    "high_alch": "0",
    "currency": "995",
    "general_store": "false",
    "id": "89",
    "title": "Green Gemstone Gem",
    "stock": "{1607,0}-{1605,0}-{1603,0}-{1601,0}"
  },
  {
    "npcs": "540",
    "high_alch": "0",
    "currency": "995",
    "general_store": "false",
    "id": "90",
    "title": "Gem Trader (stall)",
    "stock": "{1623,0}-{1621,0}-{1619,0}-{1617,0}-{1607,0}-{1605,0}-{1603,0}-{1601,0}"
  },
  {
    "npcs": "540",
    "high_alch": "0",
    "currency": "995",
    "general_store": "false",
    "id": "91",
    "title": "Gem Trader (stall)",
    "stock": "{1623,0}-{1621,0}-{1619,0}-{1617,0}-{1607,0}-{1605,0}-{1603,0}-{1601,0}"
  },
  {
    "npcs": "2157",
    "high_alch": "0",
    "currency": "995",
    "general_store": "false",
    "id": "92",
    "title": "Gem Store",
    "stock": "{1623,1}-{1621,1}-{1619,0}-{1617,0}"
  },
  {
    "npcs": "",
    "high_alch": "0",
    "currency": "995",
    "general_store": "false",
    "id": "93",
    "title": "Pelters' Veg Stall",
    "stock": "{2518,100}"
  },
  {
    "npcs": "569",
    "high_alch": "0",
    "currency": "995",
    "general_store": "false",
    "id": "94",
    "title": "Ardougne Silver Stall",
    "stock": "{1714,10}-{442,0}-{2355,0}"
  },
  {
    "npcs": "572",
    "high_alch": "0",
    "currency": "995",
    "general_store": "false",
    "id": "95",
    "title": "Ardougne Spice Stall",
    "stock": "{2007,10}-{946,10}-{1550,10}"
  },
  {
    "npcs": "958",
    "high_alch": "0",
    "currency": "995",
    "general_store": "false",
    "id": "96",
    "title": "Shop of Distate",
    "stock": "{2518,1}"
  },
  {
    "npcs": "573",
    "high_alch": "0",
    "currency": "995",
    "general_store": "false",
    "id": "97",
    "title": "Ardougne Fur Stall",
    "stock": "{948,10}-{958,10}-{10117,0}-{10121,0}-{10119,0}-{10123,0}-{10093,0}-{10095,0}-{10097,0}-{10099,0}-{10101,0}-{10103,0}"
  },
  {
    "npcs": "538",
    "high_alch": "0",
    "currency": "995",
    "general_store": "false",
    "id": "98",
    "title": "Peksa's Helmet Shop",
    "stock": "{1139,5}-{1137,3}-{1141,3}-{1143,1}-{1145,1}-{1155,4}-{1153,3}-{1157,2}-{1159,1}-{1161,1}"
  },
  {
    "npcs": "1303",
    "high_alch": "0",
    "currency": "995",
    "general_store": "false",
    "id": "99",
    "title": "Skulgrimen's Battle Gear",
    "stock": "{1337,10}-{1335,10}-{1339,10}-{1341,10}-{1343,10}-{1347,0}-{3749,10}-{3751,10}-{3753,10}-{3755,10}"
  },
  {
    "npcs": "595",
    "high_alch": "0",
    "currency": "995",
    "general_store": "false",
    "id": "100",
    "title": "Tea Shop",
    "stock": "{712,10}"
  },
  {
    "npcs": "704",
    "high_alch": "0",
    "currency": "995",
    "general_store": "false",
    "id": "102",
    "title": "Grud's Herblore Stall",
    "stock": "{229,10}-{233,10}-{221,10}"
  },
  {
    "npcs": "587",
    "high_alch": "0",
    "currency": "995",
    "general_store": "false",
    "id": "103",
    "title": "Jatix's Herblore Shop",
    "stock": "{229,inf}-{233,inf}-{221,inf}"
  },
  {
    "npcs": "5110",
    "high_alch": "0",
    "currency": "995",
    "general_store": "false",
    "id": "104",
    "title": "Aleck's Hunter Emporium",
    "stock": "{10010,10}-{10012,300}-{10025,300}-{10150,10}-{10006,30}-{10008,30}-{10029,10}-{596,10}-{10031,30}-{12539,0}"
  },
  {
    "npcs": "5109",
    "high_alch": "0",
    "currency": "995",
    "general_store": "false",
    "id": "105",
    "title": "Nardah Hunter Shop",
    "stock": "{10010,10}-{10012,300}-{10025,300}-{10150,10}-{10006,30}-{10008,30}-{10029,10}-{596,10}-{10031,30}-{12539,0}"
  },
  {
    "npcs": "556",
    "high_alch": "0",
    "currency": "995",
    "general_store": "false",
    "id": "106",
    "title": "Grum's Gold Exchange",
    "stock": "{1635,0}-{1637,0}-{1639,0}-{1641,0}-{1643,0}-{1654,0}-{1656,0}-{1658,0}-{1660,0}-{1662,0}-{1692,0}-{1694,0}-{1696,0}-{1698,0}-{1700,0}-{11069,0}-{11072,0}-{11076,0}-{11085,0}-{11092,0}"
  },
  {
    "npcs": "1862",
    "high_alch": "0",
    "currency": "995",
    "general_store": "false",
    "id": "107",
    "title": "Ali's Discount Wares.",
    "stock": "{1931,30}-{1935,10}-{1825,10}-{1833,10}-{1837,10}-{1925,30}-{4593,10}-{4591,10}-{970,1}-{946,10}-{590,10}-{1265,10}-{2138,10}"
  },
  {
    "npcs": "1865",
    "high_alch": "0",
    "currency": "995",
    "general_store": "false",
    "id": "108",
    "title": "Ali the Kebab Seller",
    "stock": "{1971,10}"
  },
  {
    "npcs": "543",
    "high_alch": "0",
    "currency": "995",
    "general_store": "false",
    "id": "109",
    "title": "Karim",
    "stock": "{1971,10}"
  },
  {
    "npcs": "2198",
    "high_alch": "0",
    "currency": "995",
    "general_store": "false",
    "id": "110",
    "title": "Kjut's KEbabs",
    "stock": "{1971,10}"
  },
  {
    "npcs": "580",
    "high_alch": "0",
    "currency": "995",
    "general_store": "false",
    "id": "111",
    "title": "Flynn's Mace Market",
    "stock": "{1422,5}-{1420,4}-{1424,4}-{1428,3}-{1430,2}"
  },
  {
    "npcs": "1862",
    "high_alch": "0",
    "currency": "995",
    "general_store": "false",
    "id": "112",
    "title": "Ali's Discount Wares#runes",
    "stock": "{1931,30}-{1935,10}-{1833,10}-{1837,10}-{1925,10}-{4593,10}-{4591,10}-{970,10}-{946,10}-{590,10}-{1265,10}-{2138,10}-{6416,10}-{4600,10}-{6416,10}-{4600,10}-{556,300}-{555,300}-{557,300}-{554,300}-{561,300}-{563,300}-{562,300}-{560,300}-{558,300}-{559,300}-{565,100}-{564,300}-{566,100}-{6382,30}-{6388,30}-{6390,30}-{1835,30}"
  },
  {
    "npcs": "583",
    "high_alch": "1",
    "currency": "995",
    "general_store": "false",
    "id": "113",
    "title": "Betty's Magic Emporium",
    "stock": "{554,300}-{555,300}-{556,300}-{557,300}-{558,100}-{559,100}-{562,30}-{560,10}-{221,100}-{579,10}-{1017,10}"
  },
  {
    "npcs": "553",
    "high_alch": "0",
    "currency": "995",
    "general_store": "false",
    "id": "114",
    "title": "Aubury's Rune Shop",
    "stock": "{554,5000}-{555,5000}-{556,5000}-{557,5000}-{558,5000}-{559,5000}-{562,500}-{560,500}"
  },
  {
    "npcs": "461",
    "high_alch": "0",
    "currency": "995",
    "general_store": "false",
    "id": "115",
    "title": "Magic Guild Store",
    "stock": "{556,5000}-{555,5000}-{557,5000}-{554,5000}-{558,5000}-{559,5000}-{562,250}-{561,250}-{560,250}-{563,250}-{565,250}-{566,250}-{1391,5}-{1387,2}-{1383,2}-{1381,2}-{1385,2}"
  },
  {
    "npcs": "4513",
    "high_alch": "0",
    "currency": "995",
    "general_store": "false",
    "id": "116",
    "title": "Baba Yaga's Magic Shop",
    "stock": "{556,1000}-{555,1000}-{557,1000}-{554,1000}-{558,1000}-{559,1000}-{562,300}-{561,300}-{560,300}-{563,100}-{565,100}-{566,100}-{9075,100}-{1391,20}-{1387,10}-{1383,10}-{1381,10}-{1385,10}-{9078,10}"
  },
  {
    "npcs": "3097",
    "high_alch": "0",
    "currency": "995",
    "general_store": "false",
    "id": "117",
    "title": "Mage Training Arena#rewards",
    "stock": ""
  },
  {
    "npcs": "903",
    "high_alch": "0",
    "currency": "995",
    "general_store": "false",
    "id": "118",
    "title": "Lundail's Arena-side Rune Shop",
    "stock": "{554,1000}-{555,1000}-{556,1000}-{557,1000}-{558,1000}-{559,1000}-{561,300}-{562,300}-{563,100}-{564,300}-{560,300}"
  },
  {
    "npcs": "1435",
    "high_alch": "0",
    "currency": "995",
    "general_store": "false",
    "id": "119",
    "title": "Tutab's Magical Market",
    "stock": "{554,1000}-{555,1000}-{556,1000}-{557,1000}-{563,100}-{4009,10}-{4006,10}-{4023,10}"
  },
  {
    "npcs": "3798",
    "high_alch": "0",
    "currency": "995",
    "general_store": "false",
    "id": "120",
    "title": "Void Knight Magic Store",
    "stock": "{554,1000}-{555,1000}-{556,1000}-{557,1000}-{558,1000}-{559,1000}-{562,300}-{560,300}"
  },
  {
    "npcs": "2623",
    "high_alch": "0",
    "currency": "6529",
    "general_store": "false",
    "id": "121",
    "title": "Tzhaar-mej-roh's Rune Store",
    "stock": "{554,1000}-{555,1000}-{557,1000}-{556,1000}-{558,1000}-{559,1000}-{562,300}-{560,100}"
  },
  {
    "npcs": "2622",
    "high_alch": "0",
    "currency": "6529",
    "general_store": "false",
    "id": "122",
    "title": "Tzhaar-Hur-Lek's Ore and Gem Store.",
    "stock": "{438,5}-{436,5}-{440,2}-{442,0}-{453,0}-{444,0}-{447,0}-{449,0}-{451,0}-{1623,1}-{1621,1}-{1619,0}-{1617,0}-{1631,0}-{6571,1}-{9194,50}"
  },
  {
    "npcs": "1658",
    "high_alch": "0",
    "currency": "995",
    "general_store": "false",
    "id": "123",
    "title": "Magic Guild Store",
    "stock": "{4089,1000}-{4091,1000}-{4093,1000}-{4095,1000}-{4097,1000}"
  },
  {
    "npcs": "594",
    "high_alch": "0",
    "currency": "995",
    "general_store": "false",
    "id": "124",
    "title": "Nurmof's Pickaxe Shop",
    "stock": "{1265,10}-{1267,10}-{1269,10}-{1273,10}-{1271,10}-{1275,10}"
  },
  {
    "npcs": "579",
    "high_alch": "0",
    "currency": "995",
    "general_store": "false",
    "id": "125",
    "title": "Drogo's Mining Emporium",
    "stock": "{2347,10}-{1265,10}-{436,0}-{438,0}-{440,0}-{453,0}-{2349,0}-{2351,0}-{2357,0}"
  },
  {
    "npcs": "2160",
    "high_alch": "0",
    "currency": "995",
    "general_store": "false",
    "id": "126",
    "title": "Pickaxe-is-mine",
    "stock": "{1265,10}-{1269,10}-{1273,10}-{1271,10}-{1275,10}"
  },
  {
    "npcs": "6750,6898,6893",
    "high_alch": "0",
    "currency": "995",
    "general_store": "false",
    "id": "127",
    "title": "Pet Shop",
    "stock": "{12130,10}-{12125,1000}-{12127,10}-{12183,125000}"
  },
  {
    "npcs": "589",
    "high_alch": "0",
    "currency": "995",
    "general_store": "false",
    "id": "128",
    "title": "Zenesha's Platebody Shop",
    "stock": "{1117,10}-{1115,10}-{1119,10}-{1125,10}-{1121,10}"
  },
  {
    "npcs": "549",
    "high_alch": "0",
    "currency": "995",
    "general_store": "false",
    "id": "129",
    "title": "Horvik's Armour Shop",
    "stock": "{1103,10}-{1101,10}-{1173,10}-{1175,10}-{1075,10}-{1067,10}-{1087,10}-{1081,10}-{1117,10}-{1115,10}-{1119,10}-{1125,10}-{1121,10}"
  },
  {
    "npcs": "5485",
    "high_alch": "0",
    "currency": "995",
    "general_store": "false",
    "id": "130",
    "title": "Armour Shop",
    "stock": "{1109,4}-{1159,4}-{1181,4}-{1197,4}-{1071,4}-{1085,4}-{1121,4}"
  },
  {
    "npcs": "542",
    "high_alch": "0",
    "currency": "995",
    "general_store": "false",
    "id": "131",
    "title": "Louie's Armoured Legs Bazaar",
    "stock": "{1075,10}-{1067,10}-{1069,10}-{1077,10}-{1071,10}-{1073,10}"
  },
  {
    "npcs": "549",
    "high_alch": "0",
    "currency": "995",
    "general_store": "false",
    "id": "132",
    "title": "Horvik's Armour Shop",
    "stock": "{1103,10}-{1101,10}-{1173,10}-{1175,10}-{1075,10}-{1067,10}-{1087,10}-{1081,10}-{1117,10}-{1115,10}-{1119,10}-{1125,10}-{1121,10}"
  },
  {
    "npcs": "3038",
    "high_alch": "0",
    "currency": "995",
    "general_store": "false",
    "id": "133",
    "title": "Seddus Adventurers Store",
    "stock": "{1093,10}-{1079,10}-{1113,10}-{1099,10}-{1193,10}"
  },
  {
    "npcs": "544",
    "high_alch": "0",
    "currency": "995",
    "general_store": "false",
    "id": "134",
    "title": "Ranael's Super Skirt Store",
    "stock": "{1087,10}-{1081,10}-{1083,10}-{1089,10}-{1085,10}-{1091,10}"
  },
  {
    "npcs": "541",
    "high_alch": "0",
    "currency": "995",
    "general_store": "false",
    "id": "135",
    "title": "Zeke's Superior Scimitars",
    "stock": "{1321,10}-{1323,10}-{1325,10}-{1329,10}"
  },
  {
    "npcs": "1434",
    "high_alch": "0",
    "currency": "995",
    "general_store": "false",
    "id": "136",
    "title": "Daga's Scimitar Smithy",
    "stock": "{1321,10}-{1323,10}-{1325,10}-{1329,10}-{4587,10}"
  },
  {
    "npcs": "577",
    "high_alch": "1",
    "currency": "995",
    "general_store": "false",
    "id": "137",
    "title": "Cassie's Shield Shop",
    "stock": "{1171,5}-{1173,3}-{1189,3}-{1175,2}-{1191,0}-{1177,0}-{1193,0}-{1181,0}"
  },
  {
    "npcs": "209",
    "high_alch": "0",
    "currency": "995",
    "general_store": "false",
    "id": "138",
    "title": "Multicannon parts for sale",
    "stock": "{6,5}-{8,5}-{10,5}-{12,5}-{5,5}-{4,5}"
  },
  {
    "npcs": "1980",
    "high_alch": "0",
    "currency": "995",
    "general_store": "false",
    "id": "139",
    "title": "Spice Shop",
    "stock": "{1931,30}-{2169,10}-{5970,0}"
  },
  {
    "npcs": "546",
    "high_alch": "0",
    "currency": "995",
    "general_store": "false",
    "id": "140",
    "title": "Staff Shop",
    "stock": "{1379,10}-{1389,10}-{1381,10}-{1383,10}-{1385,10}-{1387,10}-{2890,10}"
  },
  {
    "npcs": "6971",
    "high_alch": "0",
    "currency": "995",
    "general_store": "false",
    "id": "141",
    "title": "Pikkupstix's Summoning Shop",
    "stock": "{12204,10}-{12207,10}-{12210,10}-{12213,10}-{12216,10}-{12219,10}-{12222,10}-{12183,125000}-{12155,5000}"
  },
  {
    "npcs": "6996",
    "high_alch": "0",
    "currency": "995",
    "general_store": "false",
    "id": "142",
    "title": "Bogrog's Summoning Shop",
    "stock": "{12204,10}-{12207,10}-{12210,10}-{12213,10}-{12216,10}-{12219,10}-{12222,10}-{12183,125000}-{12155,5000}"
  },
  {
    "npcs": "3671",
    "high_alch": "0",
    "currency": "995",
    "general_store": "false",
    "id": "143",
    "title": "Fortunato's Fine Wine",
    "stock": "{1993,10}-{1937,10}-{7919,10}-{1935,10}"
  },
  {
    "npcs": "558",
    "high_alch": "0",
    "currency": "995",
    "general_store": "false",
    "id": "144",
    "title": "Gerrant's Fishy Business",
    "stock": "{303,10}-{307,10}-{309,10}-{311,30}-{301,10}-{13431,10}-{313,1000}-{314,1000}-{317,0}-{327,10}-{345,0}-{321,0}-{335,0}-{349,0}-{331,0}-{359,0}-{377,0}-{371,0}"
  },
  {
    "npcs": "576",
    "high_alch": "0",
    "currency": "995",
    "general_store": "false",
    "id": "145",
    "title": "Harry's Fishing Shop",
    "stock": "{303,10}-{307,10}-{311,1000}-{301,10}-{313,100}-{305,10}-{317,0}-{327,0}-{345,0}-{353,0}-{341,0}-{321,0}-{359,0}-{377,0}-{363,0}-{371,0}-{383,0}-{7810,1000}"
  },
  {
    "npcs": "5266",
    "high_alch": "0",
    "currency": "995",
    "general_store": "false",
    "id": "146",
    "title": "Blades By Urbi",
    "stock": "{1205,10}-{1203,10}-{1207,10}-{1217,0}-{1209,10}-{1211,10}-{1213,10}-{1215,0}-{1321,10}-{1323,10}-{1325,10}"
  },
  {
    "npcs": "586",
    "high_alch": "0",
    "currency": "995",
    "general_store": "false",
    "id": "147",
    "title": "Gaiu's Two Handed Shop",
    "stock": "{1307,10}-{1309,10}-{1311,10}-{1313,10}-{1315,10}-{1317,10}"
  },
  {
    "npcs": "602",
    "high_alch": "0",
    "currency": "995",
    "general_store": "false",
    "id": "148",
    "title": "Gulluck And Sons",
    "stock": "{882,1000}-{877,300}-{880,0}-{841,10}-{837,10}-{1363,10}-{1365,10}-{1369,10}-{1307,10}-{1309,10}-{1311,10}-{1313,10}-{1315,10}-{1317,10}"
  },
  {
    "npcs": "552,551",
    "high_alch": "0",
    "currency": "995",
    "general_store": "false",
    "id": "149",
    "title": "Varrock Sword Shop",
    "stock": "{1277,10}-{1277,10}-{1279,10}-{1281,10}-{1283,10}-{1285,10}-{1287,10}-{1291,10}-{1293,10}-{1295,10}-{1297,10}-{1299,10}-{1301,10}-{1205,10}-{1203,10}-{1207,10}-{1217,10}-{1209,10}-{1211,10}"
  },
  {
    "npcs": "541",
    "high_alch": "0",
    "currency": "995",
    "general_store": "false",
    "id": "150",
    "title": "Zeke's Superior Scimitars",
    "stock": "{1321,10}-{1323,10}-{1325,10}-{1329,10}"
  },
  {
    "npcs": "692",
    "high_alch": "0",
    "currency": "995",
    "general_store": "false",
    "id": "151",
    "title": "Authentic Throwing Weapons",
    "stock": "{825,1000}-{826,1000}-{827,1000}-{828,300}-{829,100}-{830,100}-{800,900}-{801,800}-{802,700}-{803,600}-{804,500}-{805,400}"
  },
  {
    "npcs": "797",
    "high_alch": "0",
    "currency": "995",
    "general_store": "false",
    "id": "152",
    "title": "Happy Heroes Hemporium",
    "stock": "{1377,1}-{1434,1}"
  },
  {
    "npcs": "564",
    "high_alch": "0",
    "currency": "995",
    "general_store": "false",
    "id": "153",
    "title": "Jukat's Dragon Sword Shop",
    "stock": "{1305,2}-{1215,2}"
  },
  {
    "npcs": "4312",
    "high_alch": "0",
    "currency": "995",
    "general_store": "false",
    "id": "154",
    "title": "Nardok's Bone Weapons",
    "stock": "{5018,10}-{5016,10}-{8872,10}-{8880,10}-{8882,25000}"
  },
  {
    "npcs": "2152",
    "high_alch": "0",
    "currency": "995",
    "general_store": "false",
    "id": "155",
    "title": "Quality Weapons Shop",
    "stock": "{1365,10}-{1369,10}-{1285,10}-{1287,10}-{1325,10}-{1297,10}-{1303,10}-{853,10}-{888,100}-{890,100}"
  },
  {
    "npcs": "1208",
    "high_alch": "0",
    "currency": "995",
    "general_store": "false",
    "id": "156",
    "title": "Quartermaster's Stores",
    "stock": "{1931,30}-{1935,10}-{1735,10}-{590,10}-{2309,10}-{3190,10}-{3192,10}-{3194,10}-{3196,10}-{3198,10}-{3200,10}-{3202,10}-{3204,10}"
  },
  {
    "npcs": "2572,2233",
    "high_alch": "0",
    "currency": "995",
    "general_store": "false",
    "id": "157",
    "title": "Draynor Seed Marker",
    "stock": "{5318,0}-{5319,0}-{5324,0}-{5322,0}-{5320,0}-{5323,0}-{5321,0}-{5305,0}-{5306,5}-{5097,20}-{5096,20}-{5307,20}-{5308,5}-{5310,0}-{5311,0}"
  },
  {
    "npcs": "3205",
    "high_alch": "0",
    "currency": "995",
    "general_store": "false",
    "id": "158",
    "title": "Romily Weaklax Pie's",
    "stock": "{2323,1}-{2325,1}-{2327,1}-{7178,1}-{7188,1}-{7198,1}"
  },
  {
    "npcs": "70,1598,1596,1597,1599,8274,8275,8276,8277,8273,8271,8270,2253",
    "high_alch": "0",
    "currency": "995",
    "general_store": "false",
    "id": "159",
    "title": "Slayer Equipment",
    "stock": "{4155,50}-{4156,50}-{4158,50}-{4160,50000}-{4161,5000}-{4162,50}-{4164,50}-{4166,50}-{4168,50}-{4170,50}-{4551,50}-{6664,5000}-{6696,3000}-{6720,50}-{7051,50}-{7159,50}-{7421,50}-{7432,50}-{8923,50}-{10952,50}-{13279,5000}-{13278,3000}"
  },
  {
    "npcs": "2257,2258,2259",
    "high_alch": "0",
    "currency": "995",
    "general_store": "false",
    "id": "160",
    "title": "Battle Runes",
    "stock": "{554,100}-{555,100}-{556,100}-{557,100}-{558,100}-{559,100}-{562,30}-{560,30}"
  },
  {
    "npcs": "3162",
    "high_alch": "0",
    "currency": "995",
    "general_store": "false",
    "id": "161",
    "title": "Smithing Smiths Shop",
    "stock": "{1321,10}-{1323,10}-{1325,10}-{1329,10}-{2347,10}"
  },
  {
    "npcs": "1167",
    "high_alch": "0",
    "currency": "995",
    "general_store": "false",
    "id": "162",
    "title": "Tamayu's Spear Stall",
    "stock": "{3188,10}"
  },
  {
    "npcs": "2620",
    "high_alch": "0",
    "currency": "6529",
    "general_store": "false",
    "id": "163",
    "title": "Tzhaar-hur-tel's Equipment Store",
    "stock": "{6522,500}-{6525,1}-{6523,1}-{6524,1}-{6526,1}-{6527,1}-{6528,1}-{6568,1}"
  },
  {
    "npcs": "2151",
    "high_alch": "0",
    "currency": "995",
    "general_store": "false",
    "id": "164",
    "title": "Vigr's Warhammers",
    "stock": "{1337,10}-{1335,10}-{1339,10}-{1341,10}-{1343,10}"
  },
  {
    "npcs": "5486",
    "high_alch": "0",
    "currency": "995",
    "general_store": "false",
    "id": "165",
    "title": "Weapons Galore",
    "stock": "{1315,10}-{1343,10}-{1369,10}-{1299,10}"
  },
  {
    "npcs": "4250",
    "high_alch": "0",
    "currency": "995",
    "general_store": "false",
    "id": "166",
    "title": "Construction supplies",
    "stock": "{8794,10}-{8790,300}-{4819,300}-{4820,300}-{1539,300}"
  },
  {
    "npcs": "1079",
    "high_alch": "0",
    "currency": "995",
    "general_store": "false",
    "id": "167",
    "title": "The Toad and Chicken",
    "stock": "{1905,12}-{1907,12}-{1913,12}"
  },
  {
    "npcs": "2270",
    "high_alch": "0",
    "currency": "995",
    "general_store": "false",
    "id": "168",
    "title": "Martin Thwait's Lost and Found.",
    "stock": "{954,50}-{1523,25}-{1755,30}-{946,20}-{5560,25}-{864,15}-{863,10}-{865,5}-{3095,3}-{3096,2}-{3097,1}"
  },
  {
    "npcs": "970",
    "high_alch": "0",
    "currency": "995",
    "general_store": "false",
    "id": "169",
    "title": "Diango's Toy Store",
    "stock": "{2526,10}-{2520,10}-{2522,10}-{2524,10}-{4613,10}-{12844,10}"
  },
  {
    "npcs": "793",
    "high_alch": "0",
    "currency": "995",
    "general_store": "false",
    "id": "170",
    "title": "The Shrimp and Parrot",
    "stock": "{347,5}-{339,5}-{379,3}-{373,2}-{3144,3}"
  },
  {
    "npcs": "747",
    "high_alch": "0",
    "currency": "995",
    "general_store": "false",
    "id": "171",
    "title": "Oziach's Armour",
    "stock": "{1127,2}-{1135,2}"
  },
  {
    "npcs": "537",
    "high_alch": "0",
    "currency": "995",
    "general_store": "false",
    "id": "172",
    "title": "Scavvo's Rune Store",
    "stock": "{1093,1}-{1079,1}-{1432,1}-{1113,1}-{1303,1}-{1289,1}-{1099,1}-{1065,1}-{1169,2}"
  },
  {
    "npcs": "536",
    "high_alch": "0",
    "currency": "995",
    "general_store": "false",
    "id": "173",
    "title": "Valaine's Shop of Champions.",
    "stock": "{1021,2}-{1165,1}-{1077,1}-{1123,1}"
  },
  {
    "npcs": "833",
    "high_alch": "0",
    "currency": "995",
    "general_store": "true",
    "id": "174",
    "title": "Bebadin Village Bartering",
    "stock": "{1823,30}-{1831,30}-{1937,10}-{1921,10}-{1929,10}-{946,10}-{2347,10}"
  },
  {
    "npcs": "566",
    "high_alch": "0",
    "currency": "995",
    "general_store": "false",
    "id": "175",
    "title": "Irksol",
    "stock": "{1641,5}"
  },
  {
    "npcs": "904",
    "high_alch": "0",
    "currency": "995",
    "general_store": "false",
    "id": "176",
    "title": "Mage Arena Staffs",
    "stock": "{2415,5}-{2416,5}-{2417,5}"
  },
  {
    "npcs": "",
    "high_alch": "0",
    "currency": "995",
    "general_store": "false",
    "id": "177",
    "title": "Culinaromancer's Chest",
    "stock": "{1973,50}-{1982,50}-{1987,9}-{2283,1}-{1927,50}-{6697,50}-{2313,50}-{1973,50}-{1923,50}-{1931,50}-{1925,50}-{1985,50}-{1955,50}-{1933,50}-{1944,50}-{2130,50}-{2007,50}-{1887,50}-{1935,50}-{1980,50}"
  },
  {
    "npcs": "",
    "high_alch": "0",
    "currency": "995",
    "general_store": "false",
    "id": "178",
    "title": "Culinaromancer's Chest",
    "stock": "{7453,5}-{7454,5}-{7455,5}-{7456,5}-{7457,5}-{7458,5}-{7459,5}-{7460,5}-{7461,5}-{7462,5}-{7433,5}-{7435,5}-{7437,5}-{7439,5}-{7441,5}-{7443,5}-{7445,5}-{7447,5}-{7449,5}-{7451,5}"
  },
  {
    "npcs": "2290",
    "high_alch": "0",
    "currency": "995",
    "general_store": "false",
    "id": "179",
    "title": "Sir Tiffy Cashien",
    "stock": "{5574,10}-{5576,10}-{5575,10}-{9672,10}-{9676,10}-{9674,10}-{9678,10}"
  },
  {
    "npcs": "933",
    "high_alch": "0",
    "currency": "995",
    "general_store": "false",
    "id": "180",
    "title": "Legends' Guild Shop of Useful Items",
    "stock": "{299,100}-{1542,5}-{1590,3}-{1052,1}-{2368,3}"
  },
  {
    "npcs": "4518",
    "high_alch": "0",
    "currency": "995",
    "general_store": "false",
    "id": "181",
    "title": "MoonClan Fine Clothes",
    "stock": "{9068,10}-{9069,10}-{9070,10}-{9071,10}-{9072,10}-{9073,10}-{9074,10}-{1733,50}-{1734,500}"
  },
  {
    "npcs": "",
    "high_alch": "0",
    "currency": "995",
    "general_store": "false",
    "id": "182",
    "title": "Delicious Goods",
    "stock": "{2436,150000}-{2440,150000}-{2442,150000}-{2444,150000}-{3040,150000}-{2434,150000}-{3024,150000}-{2452,150000}-{6685,150000}-{9739,150000}-{385,150000}-{3144,150000}-{391,150000}-{7060,150000}-{7946,150000}-{379,150000}-{7218,150000}-{2301,150000}"
  },
  {
    "npcs": "",
    "high_alch": "0",
    "currency": "995",
    "general_store": "false",
    "id": "183",
    "title": "Armour & Supplies",
    "stock": "{5698,150000}-{1305,150000}-{4587,150000}-{1377,150000}-{1434,150000}-{7158,150000}-{3204,150000}-{4151,150000}-{4153,150000}-{6528,150000}-{1333,150000}-{1319,150000}-{10887,150000}-{5574,150000}-{5575,150000}-{5576,150000}-{9672,150000}-{9674,150000}-{9676,150000}-{1067,150000}-{1115,150000}-{1153,150000}-{1079,150000}-{1127,150000}-{1163,150000}-{6107,150000}-{6109,150000}-{6108,150000}-{6524,150000}-{10828,150000}-{3751,150000}-{3753,150000}-{3105,150000}-{7460,150000}"
  },
  {
    "npcs": "",
    "high_alch": "0",
    "currency": "995",
    "general_store": "false",
    "id": "184",
    "title": "Range Supplies",
    "stock": "{9241,150000}-{9243,150000}-{9242,150000}-{9244,150000}-{9245,150000}-{9144,150000}-{9305,150000}-{868,150000}-{11230,150000}-{6522,150000}-{892,150000}-{2491,150000}-{2497,150000}-{2503,150000}-{6328,150000}-{3749,150000}-{861,150000}-{9185,150000}-{4214,150000}-{1169,150000}-{1129,150000}-{10034,150000}"
  },
  {
    "npcs": "",
    "high_alch": "0",
    "currency": "995",
    "general_store": "false",
    "id": "185",
    "title": "Magic Emporium",
    "stock": "{554,150000}-{555,150000}-{556,150000}-{557,150000}-{558,150000}-{559,150000}-{560,150000}-{561,150000}-{562,150000}-{563,150000}-{564,150000}-{565,150000}-{566,150000}-{9075,150000}-{4089,150000}-{4091,150000}-{4093,150000}-{4095,150000}-{4097,150000}-{4099,150000}-{4101,150000}-{4103,150000}-{4105,150000}-{4107,150000}-{4109,150000}-{4111,150000}-{4113,150000}-{4115,150000}-{4117,150000}-{6912,150000}-{3840,150000}-{3842,150000}-{3844,150000}-{1540,150000}-{2412,150000}-{2413,150000}-{2414,150000}-{4675,150000}-{2415,150000}-{2416,150000}-{2417,150000}-{577,150000}-{579,150000}-{2579,150000}"
  },
  {
    "npcs": "5509",
    "high_alch": "0",
    "currency": "995",
    "general_store": "false",
    "id": "186",
    "title": "Neitiznot Supplies",
    "stock": "{946,10}-{2347,10}-{1734,10}-{1733,10}-{1351,10}-{1759,100}"
  },
  {
    "npcs": "1778",
    "high_alch": "0",
    "currency": "995",
    "general_store": "false",
    "id": "187",
    "title": "William's Wilderness Cape Shop",
    "stock": "{4315,100}-{4335,100}-{4375,100}-{4395,100}"
  },
  {
    "npcs": "1779",
    "high_alch": "0",
    "currency": "995",
    "general_store": "false",
    "id": "188",
    "title": "Ian's Wilderness Cape Shop",
    "stock": "{4317,100}-{4337,100}-{4357,100}-{4377,100}-{4397,100}"
  },
  {
    "npcs": "1780",
    "high_alch": "0",
    "currency": "995",
    "general_store": "false",
    "id": "189",
    "title": "Larry's Wilderness Cape Shop",
    "stock": "{4319,100}-{4339,100}-{4359,100}-{4379,100}-{4399,100}"
  },
  {
    "npcs": "1781",
    "high_alch": "0",
    "currency": "995",
    "general_store": "false",
    "id": "190",
    "title": "Darren's Wilderness Cape Shop",
    "stock": "{4321,100}-{4341,100}-{4361,100}-{4381,100}-{4401,100}"
  },
  {
    "npcs": "1782",
    "high_alch": "0",
    "currency": "995",
    "general_store": "false",
    "id": "191",
    "title": "Edward's Wilderness Cape Shop",
    "stock": "{4323,100}-{4343,100}-{4363,100}-{4383,100}-{4403,100}"
  },
  {
    "npcs": "1783",
    "high_alch": "0",
    "currency": "995",
    "general_store": "false",
    "id": "192",
    "title": "Richard's Wilderness Cape Shop",
    "stock": "{4325,100}-{4345,100}-{4365,100}-{4385,100}-{4405,100}"
  },
  {
    "npcs": "1784",
    "high_alch": "0",
    "currency": "995",
    "general_store": "false",
    "id": "193",
    "title": "Neil's Wilderness Cape Shop",
    "stock": "{4327,100}-{4347,100}-{4367,100}-{4387,100}-{4407,100}"
  },
  {
    "npcs": "1785",
    "high_alch": "0",
    "currency": "995",
    "general_store": "false",
    "id": "194",
    "title": "Edmond's Wilderness Cape Shop",
    "stock": "{4329,100}-{4349,100}-{4369,100}-{4389,100}-{4409,100}"
  },
  {
    "npcs": "1786",
    "high_alch": "0",
    "currency": "995",
    "general_store": "false",
    "id": "195",
    "title": "Simon's Wilderness Cape Shop",
    "stock": "{4331,100}-{4351,100}-{4371,100}-{4391,100}-{4411,100}"
  },
  {
    "npcs": "1787",
    "high_alch": "0",
    "currency": "995",
    "general_store": "false",
    "id": "196",
    "title": "Sam's Wilderness Cape Shop",
    "stock": "{4333,100}-{4353,100}-{4373,100}-{4393,100}-{4413,100}"
  },
  {
    "npcs": "",
    "high_alch": "0",
    "currency": "995",
    "general_store": "true",
    "id": "197",
    "title": "Donator Island General Store",
    "stock": "{1931,30}-{1935,30}-{1735,10}-{1925,10}-{1923,10}-{1887,10}-{590,10}-{1755,10}-{2347,10}-{550,10}-{9003,10}"
  },
  {
    "npcs": "",
    "high_alch": "0",
    "currency": "995",
    "general_store": "false",
    "id": "198",
    "title": "Candle Shop",
    "stock": "{36,10}-{38,10}"
  },
  {
    "npcs": "",
    "high_alch": "0",
    "currency": "995",
    "general_store": "false",
    "id": "200",
    "title": "The Teleporter's Tabs",
    "stock": "{8007,100}-{8008,100}-{8009,100}-{8010,100}-{8011,100}-{8012,100}"
  },
  {
    "npcs": "",
    "high_alch": "0",
    "currency": "995",
    "general_store": "false",
    "id": "201",
    "title": "The Fairy's Culinary Goods",
    "stock": "{330,10000000}-{6706,10000000}-{380,10000000}-{7219,10000000}-{2290,10000000}-{2302,10000000}-{1892,10000000}-{229,10000000}"
  },
  {
    "npcs": "",
    "high_alch": "0",
    "currency": "995",
    "general_store": "false",
    "id": "202",
    "title": "The Wizard's Goods",
    "stock": "{554,10000000}-{555,10000000}-{556,10000000}-{557,10000000}-{558,10000000}-{559,10000000}-{562,10000000}-{560,10000000}-{563,10000000}-{14730,10000000}-{14732,10000000}-{14734,10000000}-{14736,10000000}-{14738,10000000}-{14740,10000000}-{11872,10}-{11960,10}-{11962,10}-{579,10}-{577,10}-{1011,10}-{1389,10}-{1381,10}-{1381,10}-{1383,10}-{1385,10}-{1387,10}-{4675,10}-{2890,10}-{9731,10}-{3755,10}-{1727,10}-{656,10}-{658,10}-{660,10}-{662,10}-{664,10}-{3839,10}-{3841,10}-{3843,10}"
  },
  {
    "npcs": "",
    "high_alch": "0",
    "currency": "995",
    "general_store": "false",
    "id": "203",
    "title": "2009Scape Protective Goods",
    "stock": "{11814,10}-{11816,10}-{11818,10}-{11820,10}-{11822,10}-{11824,10}-{11826,10}-{11828,10}-{11830,10}-{11832,10}-{11834,10}-{11836,10}-{11838,10}-{11840,10}-{3105,10}-{4119,10}-{4121,10}-{4123,10}-{4125,10}-{4127,10}-{4129,10}-{1725,10}-{1729,10}-{3751,10}-{3753,10}-{1149,10}-{542,10}-{544,10}-{5574,10}-{5575,10}-{5576,10}-{6106,10}-{6107,10}-{6108,10}-{6109,10}-{6110,10}-{6111,10}-{4502,10}-{7458,10}"
  },
  {
    "npcs": "",
    "high_alch": "0",
    "currency": "995",
    "general_store": "false",
    "id": "204",
    "title": "2009Scape Weapon Store (Bronze - Mithril)",
    "stock": "{1205,10}-{1237,10}-{1265,10}-{1277,10}-{1291,10}-{1307,10}-{1321,10}-{1337,10}-{1351,10}-{1375,10}-{1203,10}-{1239,10}-{1267,10}-{1279,10}-{1293,10}-{1309,10}-{1323,10}-{1335,10}-{1349,10}-{1363,10}-{1207,10}-{1241,10}-{1269,10}-{1281,10}-{1295,10}-{1311,10}-{1325,10}-{1339,10}-{1353,10}-{1365,10}-{1209,10}-{1243,10}-{1273,10}-{1285,10}-{1299,10}-{1315,10}-{1329,10}-{1343,10}-{1355,10}-{1369,10}"
  },
  {
    "npcs": "",
    "high_alch": "0",
    "currency": "995",
    "general_store": "false",
    "id": "205",
    "title": "2009Scape Weapon Store (Adamant - Dragon)",
    "stock": "{1211,10}-{1245,10}-{1271,10}-{1287,10}-{1301,10}-{1317,10}-{1331,10}-{1345,10}-{1357,10}-{1371,10}-{1213,10}-{1247,10}-{1275,10}-{1289,10}-{1303,10}-{1319,10}-{1333,10}-{1347,10}-{1359,10}-{1373,10}-{1215,10}-{4587,10}"
  },
  {
    "npcs": "8174",
    "high_alch": "0",
    "currency": "995",
    "general_store": "false",
    "id": "206",
    "title": "2009Scape Tool Store",
    "stock": "{1925,10}-{2347,10}-{590,10}-{946,10}-{952,10}-{301,10}-{305,10}-{307,10}-{309,10}-{311,10}-{313,1000}-{1734,10}-{233,10}-{1349,10}-{1353,10}-{1355,10}-{1267,10}-{1269,10}-{1271,10}-{1273,10}-{1734,100}-{1733,100}-{1779,1000}-{526,500}-{532,500}"
  },
  {
    "npcs": "7967,3039",
    "high_alch": "0",
    "currency": "995",
    "general_store": "true",
    "id": "207",
    "title": "2009Scape General Store",
    "stock": "{1931,30}-{1935,30}-{1735,10}-{1925,10}-{1923,10}-{1887,10}-{590,10}-{1755,10}-{2347,10}-{550,10}-{9003,10}"
  },
  {
    "npcs": "8139",
    "high_alch": "0",
    "currency": "995",
    "general_store": "false",
    "id": "208",
    "title": "Hartwin's Longrange Tools",
    "stock": "{882,10000000}-{884,10000000}-{886,10000000}-{888,10000000}-{890,10000000}-{877,10000000}-{9140,10000000}-{9141,10000000}-{841,10}-{843,10}-{849,10}-{853,10}-{857,10}-{861,10}-{837,10}-{9177,10}-{9179,10}-{9181,10}-{9183,10}-{11864,10}-{11866,10}-{11868,10}-{11870,10}-{1063,10}-{1095,10}-{1129,10}-{1129,10}-{1131,10}-{1167,10}-{1133,10}-{1097,10}-{6328,10}-{3749,10}-{1478,10}-{8880,10}-{8882,10000000}-{863,10000000}"
  },
  {
    "npcs": "1369",
    "high_alch": "0",
    "currency": "995",
    "general_store": "false",
    "id": "209",
    "title": "Holy Wares",
    "stock": "{6746,1}-{732,100}"
  },
  {
    "npcs": "694",
    "high_alch": "0",
    "currency": "1464",
    "general_store": "false",
    "id": "210",
    "title": "Ranging Guild Ticket Exchange",
    "stock": "{47,10000000}-{1133,10000000}-{892,10000000}-{1169,10000000}-{1135,10000000}-{829,10000000}"
  },
  {
    "npcs": "3045",
    "high_alch": "0",
    "currency": "995",
    "general_store": "false",
    "id": "211",
    "title": "Rok's Choc Box",
    "stock": "{6794,30}-{1973,25}"
  },
  {
    "npcs": "1688",
    "high_alch": "0",
    "currency": "995",
    "general_store": "false",
    "id": "212",
    "title": "Ak-haranu's Exotic Goods",
    "stock": "{4740,100000}"
  },
  {
    "npcs": "4251",
    "high_alch": "1",
    "currency": "995",
    "general_store": "false",
    "id": "213",
    "title": "The Garden Centre",
    "stock": "{8417,10}-{8419,10}-{8421,10}-{8423,10}-{8425,10}-{8427,10}-{8429,10}-{8431,1000}-{8433,10}-{8435,10}-{8451,10}-{8453,10}-{8455,10}-{8457,10}-{8459,10}-{8461,10}-{8437,10}-{8439,10}-{8441,10}-{8443,10}-{8445,10}-{8447,10}-{8449,10}"
  },
  {
    "npcs": "1972",
    "high_alch": "0",
    "currency": "995",
    "general_store": "false",
    "id": "214",
    "title": "Rasolo's Goods",
    "stock": "{1969,2}-{2023,4}-{740,10}-{1215,1}-{550,1}-{583,2}-{1941,10}-{970,1}-{975,1}-{1599,1}-{2976,1}-{1823,1}-{1837,1}-{1864,5}-{2520,1}-{3377,1}-{626,1}-{1909,1}-{3787,1}-{3711,1}-{3678,1}-{3424,5}-{3420,1}-{5,1}"
  },
  {
    "npcs": "592",
    "high_alch": "0",
    "currency": "995",
    "general_store": "false",
    "id": "215",
    "title": "Fishing Guild Shop",
    "stock": "{313,2000}-{314,1500}-{341,0}-{353,0}-{363,0}-{359,0}-{377,0}-{371,0}-{339,0}-{355,0}-{365,0}-{361,0}-{379,0}-{373,0}"
  },
  {
    "npcs": "5483",
    "high_alch": "0",
    "currency": "995",
    "general_store": "false",
    "id": "216",
    "title": "Ore Store",
    "stock": "{436,20}-{438,10}-{440,10}-{442,5}-{453,10}-{444,5}-{447,0}-{449,0}"
  },
  {
    "npcs": "596",
    "high_alch": "0",
    "currency": "995",
    "general_store": "false",
    "id": "217",
    "title": "Tony's Pizza Bases",
    "stock": "{2283,10}"
  },
  {
    "npcs": "2159",
    "high_alch": "0",
    "currency": "995",
    "general_store": "false",
    "id": "218",
    "title": "Silver Cog Silver Stall",
    "stock": "{1714,2}-{442,1}-{2355,1}"
  },
  {
    "npcs": "2158",
    "high_alch": "0",
    "currency": "995",
    "general_store": "false",
    "id": "219",
    "title": "Carefree Crafting Stall",
    "stock": "{1755,2}-{1592,4}-{1597,2}-{1733,3}-{1734,100}-{1759,100}"
  },
  {
    "npcs": "2156",
    "high_alch": "0",
    "currency": "995",
    "general_store": "false",
    "id": "220",
    "title": "Keldagrim's Best Bread",
    "stock": "{2309,10}-{1891,3}-{1901,8}"
  },
  {
    "npcs": "2153",
    "high_alch": "0",
    "currency": "995",
    "general_store": "false",
    "id": "221",
    "title": "Quality Armour Shop",
    "stock": "{1105,3}-{1109,1}-{1107,1}-{1111,1}-{1141,3}-{1143,1}-{1145,1}-{1177,0}-{1195,0}"
  },
  {
    "npcs": "2564",
    "high_alch": "0",
    "currency": "995",
    "general_store": "false",
    "id": "222",
    "title": "Ore Shop\b",
    "stock": "{436,1500}-{438,1500}-{440,1500}-{442,1500}-{444,1500}-{447,1500}-{453,1500}"
  },
  {
    "npcs": "603",
    "high_alch": "0",
    "currency": "995",
    "general_store": "false",
    "id": "223",
    "title": "Funch's Fine Groceries",
    "stock": "{2021,10}-{2019,10}-{2015,10}-{2017,10}-{2114,10}-{2128,20}-{2108,20}-{2102,20}-{2126,5}-{2026,20}-{2017,10}-{2114,10}-{2128,10}-{2108,10}"
  },
  {
    "npcs": "578",
    "high_alch": "0",
    "currency": "995",
    "general_store": "false",
    "id": "224",
    "title": "Frincos' Fabulous Herb Store",
    "stock": "{229,100}-{227,10}-{233,4}-{221,3}"
  },
  {
    "npcs": "555",
    "high_alch": "0",
    "currency": "995",
    "general_store": "true",
    "id": "225",
    "title": "Port Khazard General Store",
    "stock": "{1941,inf}-{954,inf}-{583,inf}-{1931,inf}-{1935,inf}-{1735,inf}-{1925,inf}-{1923,inf}-{1887,inf}-{590,inf}-{1755,inf}-{2347,inf}-{550,inf}-{9003,inf}"
  },
  {
    "npcs": "",
    "high_alch": "0",
    "currency": "6306",
    "general_store": "false",
    "id": "226",
    "title": "Gabooty's Tai Bwo Wannai Cooperative",
    "stock": "{6341,10}-{6343,10}-{6345,10}-{6347,10}-{6349,10}-{6313,10}-{6315,10}-{6317,10}-{6351,10}-{6353,10}-{6355,10}-{6357,10}-{6359,10}-{1625,0}-{1627,0}-{1629,0}-{6361,10}-{6363,10}-{6365,10}-{6367,10}-{6369,10}-{1609,0}-{1611,0}-{1613,0}-{6371,10}-{6373,10}-{6375,10}-{6377,10}-{6379,10}-{6311,0}"
  },
  {
    "npcs": "2161",
    "high_alch": "0",
    "currency": "995",
    "general_store": "false",
    "id": "227",
    "title": "Agmundi Quality Clothes",
    "stock": "{5050,3}-{5052,3}-{5038,3}-{5040,3}-{5044,3}-{5046,3}-{5026,3}-{5028,3}-{5032,3}-{5034,3}"
  },
  {
    "npcs": "517",
    "high_alch": "0",
    "currency": "995",
    "general_store": "false",
    "id": "228",
    "title": "Fernahei's Fishing Hut",
    "stock": "{307,5}-{309,5}-{313,200}-{314,500}-{335,0}-{349,0}-{331,0}"
  },
  {
    "npcs": "2357",
    "high_alch": "0",
    "currency": "995",
    "general_store": "false",
    "id": "229",
    "title": "Lletya Food Store",
    "stock": "{2309,10}-{379,15}-{1993,3}-{1985,10}-{1891,5}"
  },
  {
    "npcs": "2356",
    "high_alch": "0",
    "currency": "995",
    "general_store": "false",
    "id": "230",
    "title": "Lletya Archery Shop",
    "stock": "{884,2000}-{886,500}-{888,500}-{890,450}-{892,400}-{877,1500}-{843,5}-{845,5}-{837,5}-{849,5}-{847,5}"
  },
  {
    "npcs": "2352",
    "high_alch": "0",
    "currency": "995",
    "general_store": "true",
    "id": "231",
    "title": "Lletya General Store",
    "stock": ""
  },
  {
    "npcs": "1282",
    "high_alch": "0",
    "currency": "995",
    "general_store": "false",
    "id": "232",
    "title": "Sigmund the Merchant",
    "stock": "{590,2}-{954,10}-{233,3}-{1931,3}-{2142,2}-{2309,10}-{952,10}-{36,10}-{1755,10}-{2347,10}-{229,10}-{227,10}-{1925,10}-{1929,10}-{1944,10}-{1942,10}-{1965,10}"
  },
  {
    "npcs": "1315",
    "high_alch": "0",
    "currency": "995",
    "general_store": "false",
    "id": "233",
    "title": "Fremennik Fishmonger",
    "stock": "{303,5}-{307,5}-{309,5}-{311,2}-{301,2}-{313,1000}-{314,1000}-{305,5}-{317,10}-{327,10}-{345,0}-{353,0}-{341,0}-{321,0}-{335,0}-{331,0}-{359,0}-{377,0}-{363,0}-{371,0}-{383,0}"
  },
  {
    "npcs": "1300",
    "high_alch": "0",
    "currency": "995",
    "general_store": "false",
    "id": "234",
    "title": "Rellekka Longhall Bar",
    "stock": "{1917,10}-{3803,10}-{3711,10}"
  },
  {
    "npcs": "7420",
    "high_alch": "0",
    "currency": "995",
    "general_store": "false",
    "id": "235",
    "title": "Gnomic Supplies",
    "stock": "{1931,inf}-{1929,inf}-{1937,inf}-{2313,inf}-{1887,inf}-{590,inf}-{1735,inf}-{1951,inf}-{1969,inf}-{1949,inf}"
  },
  {
    "npcs": "4856",
    "high_alch": "0",
    "currency": "995",
    "general_store": "false",
    "id": "236",
    "title": "Lovecraft's Tackle",
    "stock": "{303,10}-{307,10}-{309,10}-{311,1000}-{301,10}-{313,1000}-{314,1000}-{317,0}-{327,10}-{345,0}-{321,0}-{335,0}-{349,0}-{331,0}-{359,0}-{377,0}-{371,0}"
  }
]